{
  "content": [
    {
      "id": 45,
      "name": "盖饭2",
      "priceprev1": null,
      "priceprev2": null,
      "price": 10.00,
      "displaySpecialOffer": null,
      "description": "哈哈哈2",
      "img": "/27/b3/63/32/f2/46/84a6c1fce5fe4d35aa58559854059d8c.png",
      "status": "ON_SALE",
      "salesVolume": 0,
      "createDate": "2019-05-05T17:39:41.080+0000",
      "updateDate": "2019-05-05T17:39:41.080+0000",
      "categoryId": 25,
      "categoryName": null
    },
    {
      "id": 49,
      "name": "盖饭3",
      "priceprev1": null,
      "priceprev2": null,
      "price": 0.00,
      "displaySpecialOffer": null,
      "description": "12123132",
      "img": "/c3/38/b0/6a/61/46/5479ae8c1ca4460c945c0d250768004a.png",
      "status": "OUT_OF_ORDER",
      "salesVolume": 0,
      "createDate": "2019-05-05T17:52:13.885+0000",
      "updateDate": "2019-05-05T17:52:13.885+0000",
      "categoryId": 22,
      "categoryName": null
    },
    {
      "id": 47,
      "name": "盖饭2",
      "priceprev1": null,
      "priceprev2": null,
      "price": 99.90,
      "displaySpecialOffer": null,
      "description": "哈哈哈2",
      "img": "/64/32/a0/1c/4b/45/68242251b0924a6fa2967e35e0bdc720.jpg",
      "status": "ON_SALE",
      "salesVolume": 0,
      "createDate": "2019-05-05T17:51:52.262+0000",
      "updateDate": "2019-05-06T22:00:35.179+0000",
      "categoryId": 22,
      "categoryName": null
    },
    {
      "id": 55,
      "name": "12321321",
      "priceprev1": null,
      "priceprev2": null,
      "price": 0.00,
      "displaySpecialOffer": null,
      "description": "",
      "img": "/84/64/36/7f/4e/4a/55bc35517b7d48ca83bd9ceb95dfc2b1.png",
      "status": "ON_SALE",
      "salesVolume": 0,
      "createDate": "2019-05-05T18:00:28.060+0000",
      "updateDate": "2019-05-05T18:42:03.923+0000",
      "categoryId": 22,
      "categoryName": null
    },
    {
      "id": 51,
      "name": "盖饭",
      "priceprev1": null,
      "priceprev2": null,
      "price": 0.00,
      "displaySpecialOffer": null,
      "description": "",
      "img": "/2c/59/1a/0f/2c/44/c2d0288932d34230b780a72db0468efa.png",
      "status": "ON_SALE",
      "salesVolume": 0,
      "createDate": "2019-05-05T17:52:29.941+0000",
      "updateDate": "2019-05-05T18:44:24.602+0000",
      "categoryId": 22,
      "categoryName": null
    },
    {
      "id": 53,
      "name": "213",
      "priceprev1": null,
      "priceprev2": null,
      "price": 0.00,
      "displaySpecialOffer": null,
      "description": "哈哈哈2",
      "img": "/65/1e/67/59/35/45/2d02486136ab4e40a848f3f51b1587bc.png",
      "status": "ON_SALE",
      "salesVolume": 213,
      "createDate": "2019-05-05T18:00:19.109+0000",
      "updateDate": "2019-05-05T18:44:49.849+0000",
      "categoryId": 22,
      "categoryName": null
    },
    {
      "id": 43,
      "name": "盖饭最新",
      "priceprev1": null,
      "priceprev2": null,
      "price": 12.90,
      "displaySpecialOffer": null,
      "description": "这是最新盖饭哦",
      "img": "/4c/1b/3f/07/67/4e/2b391db365b5481082e31dd57ec3dd27.jpg",
      "status": "ON_SALE",
      "salesVolume": 99,
      "createDate": "2019-05-05T17:20:56.832+0000",
      "updateDate": "2019-05-05T18:47:43.119+0000",
      "categoryId": 22,
      "categoryName": null
    },
    {
      "id": 68,
      "name": "崂山矿泉水 Lao Shan Mineral Water",
      "priceprev1": null,
      "priceprev2": null,
      "price": 28.00,
      "displaySpecialOffer": null,
      "description": "崂山矿泉水 Lao Shan Mineral Water  description",
      "img": "/4c/1b/3f/07/67/4e/2b391db365b5481082e31dd57ec3dd27.jpg",
      "status": "ON_SALE",
      "salesVolume": 921,
      "createDate": "2019-05-05T19:37:01.404+0000",
      "updateDate": "2019-05-05T19:37:01.404+0000",
      "categoryId": 60,
      "categoryName": null
    },
    {
      "id": 69,
      "name": "金威啤酒",
      "priceprev1": null,
      "priceprev2": null,
      "price": 49.00,
      "displaySpecialOffer": null,
      "description": "金威啤酒  description",
      "img": "/4c/1b/3f/07/67/4e/2b391db365b5481082e31dd57ec3dd27.jpg",
      "status": "ON_SALE",
      "salesVolume": 435,
      "createDate": "2019-05-05T19:37:01.417+0000",
      "updateDate": "2019-05-05T19:37:01.417+0000",
      "categoryId": 24,
      "categoryName": null
    },
    {
      "id": 70,
      "name": "崂山带汽矿泉水 Lao Shan Mineral Water（Sparkling）",
      "priceprev1": null,
      "priceprev2": null,
      "price": 39.00,
      "displaySpecialOffer": null,
      "description": "崂山带汽矿泉水 Lao Shan Mineral Water（Sparkling）  description",
      "img": "/4c/1b/3f/07/67/4e/2b391db365b5481082e31dd57ec3dd27.jpg",
      "status": "ON_SALE",
      "salesVolume": 653,
      "createDate": "2019-05-05T19:37:01.421+0000",
      "updateDate": "2019-05-05T19:37:01.421+0000",
      "categoryId": 60,
      "categoryName": null
    },
    {
      "id": 71,
      "name": "三元鲜贝",
      "priceprev1": null,
      "priceprev2": null,
      "price": 8.00,
      "displaySpecialOffer": null,
      "description": "三元鲜贝  description",
      "img": "/4c/1b/3f/07/67/4e/2b391db365b5481082e31dd57ec3dd27.jpg",
      "status": "ON_SALE",
      "salesVolume": 706,
      "createDate": "2019-05-05T19:37:01.425+0000",
      "updateDate": "2019-05-05T19:37:01.425+0000",
      "categoryId": 22,
      "categoryName": null
    },
    {
      "id": 72,
      "name": "梅干菜扣肉盖浇饭",
      "priceprev1": null,
      "priceprev2": null,
      "price": 19.00,
      "displaySpecialOffer": null,
      "description": "梅干菜扣肉盖浇饭  description",
      "img": "/4c/1b/3f/07/67/4e/2b391db365b5481082e31dd57ec3dd27.jpg",
      "status": "ON_SALE",
      "salesVolume": 410,
      "createDate": "2019-05-05T19:37:01.429+0000",
      "updateDate": "2019-05-05T19:37:01.429+0000",
      "categoryId": 25,
      "categoryName": null
    },
    {
      "id": 73,
      "name": "碧螺春 Biluochun Tea (Green Tea)",
      "priceprev1": null,
      "priceprev2": null,
      "price": 2.00,
      "displaySpecialOffer": null,
      "description": "碧螺春 Biluochun Tea (Green Tea)  description",
      "img": "/4c/1b/3f/07/67/4e/2b391db365b5481082e31dd57ec3dd27.jpg",
      "status": "ON_SALE",
      "salesVolume": 246,
      "createDate": "2019-05-05T19:37:01.434+0000",
      "updateDate": "2019-05-05T19:37:01.434+0000",
      "categoryId": 62,
      "categoryName": null
    },
    {
      "id": 74,
      "name": "新奥尔良烤鸡腿堡",
      "priceprev1": null,
      "priceprev2": null,
      "price": 69.00,
      "displaySpecialOffer": null,
      "description": "新奥尔良烤鸡腿堡  description",
      "img": "/4c/1b/3f/07/67/4e/2b391db365b5481082e31dd57ec3dd27.jpg",
      "status": "ON_SALE",
      "salesVolume": 189,
      "createDate": "2019-05-05T19:37:01.436+0000",
      "updateDate": "2019-05-05T19:37:01.436+0000",
      "categoryId": 58,
      "categoryName": null
    },
    {
      "id": 75,
      "name": "软炸粉蒸肉",
      "priceprev1": null,
      "priceprev2": null,
      "price": 36.00,
      "displaySpecialOffer": null,
      "description": "软炸粉蒸肉  description",
      "img": "/4c/1b/3f/07/67/4e/2b391db365b5481082e31dd57ec3dd27.jpg",
      "status": "ON_SALE",
      "salesVolume": 122,
      "createDate": "2019-05-05T19:37:01.440+0000",
      "updateDate": "2019-05-05T19:37:01.440+0000",
      "categoryId": 22,
      "categoryName": null
    },
    {
      "id": 76,
      "name": "鲫鱼汤",
      "priceprev1": null,
      "priceprev2": null,
      "price": 10.00,
      "displaySpecialOffer": null,
      "description": "鲫鱼汤  description",
      "img": "/4c/1b/3f/07/67/4e/2b391db365b5481082e31dd57ec3dd27.jpg",
      "status": "ON_SALE",
      "salesVolume": 235,
      "createDate": "2019-05-05T19:37:01.444+0000",
      "updateDate": "2019-05-05T19:37:01.444+0000",
      "categoryId": 27,
      "categoryName": null
    },
    {
      "id": 77,
      "name": "信阳毛尖 Xinyang Maojian Tea (Green Tea)",
      "priceprev1": null,
      "priceprev2": null,
      "price": 98.00,
      "displaySpecialOffer": null,
      "description": "信阳毛尖 Xinyang Maojian Tea (Green Tea)  description",
      "img": "/4c/1b/3f/07/67/4e/2b391db365b5481082e31dd57ec3dd27.jpg",
      "status": "ON_SALE",
      "salesVolume": 237,
      "createDate": "2019-05-05T19:37:01.448+0000",
      "updateDate": "2019-05-05T19:37:01.448+0000",
      "categoryId": 62,
      "categoryName": null
    },
    {
      "id": 78,
      "name": "转一转 :牛奶+朱古力雪糕",
      "priceprev1": null,
      "priceprev2": null,
      "price": 16.00,
      "displaySpecialOffer": null,
      "description": "转一转 :牛奶+朱古力雪糕  description",
      "img": "/4c/1b/3f/07/67/4e/2b391db365b5481082e31dd57ec3dd27.jpg",
      "status": "ON_SALE",
      "salesVolume": 801,
      "createDate": "2019-05-05T19:37:01.451+0000",
      "updateDate": "2019-05-05T19:37:01.451+0000",
      "categoryId": 23,
      "categoryName": null
    },
    {
      "id": 79,
      "name": "香菇盖浇饭",
      "priceprev1": null,
      "priceprev2": null,
      "price": 84.00,
      "displaySpecialOffer": null,
      "description": "香菇盖浇饭  description",
      "img": "/4c/1b/3f/07/67/4e/2b391db365b5481082e31dd57ec3dd27.jpg",
      "status": "ON_SALE",
      "salesVolume": 965,
      "createDate": "2019-05-05T19:37:01.454+0000",
      "updateDate": "2019-05-05T19:37:01.454+0000",
      "categoryId": 25,
      "categoryName": null
    },
    {
      "id": 80,
      "name": "信阳毛尖 Xinyang Maojian Tea (Green Tea)",
      "priceprev1": null,
      "priceprev2": null,
      "price": 10.00,
      "displaySpecialOffer": null,
      "description": "信阳毛尖 Xinyang Maojian Tea (Green Tea)  description",
      "img": "/4c/1b/3f/07/67/4e/2b391db365b5481082e31dd57ec3dd27.jpg",
      "status": "ON_SALE",
      "salesVolume": 184,
      "createDate": "2019-05-05T19:37:01.457+0000",
      "updateDate": "2019-05-05T19:37:01.457+0000",
      "categoryId": 62,
      "categoryName": null
    },
    {
      "id": 81,
      "name": "巴西山度士咖啡 Brazil Santos Coffee",
      "priceprev1": null,
      "priceprev2": null,
      "price": 37.00,
      "displaySpecialOffer": null,
      "description": "巴西山度士咖啡 Brazil Santos Coffee  description",
      "img": "/4c/1b/3f/07/67/4e/2b391db365b5481082e31dd57ec3dd27.jpg",
      "status": "ON_SALE",
      "salesVolume": 206,
      "createDate": "2019-05-05T19:37:01.460+0000",
      "updateDate": "2019-05-05T19:37:01.460+0000",
      "categoryId": 61,
      "categoryName": null
    },
    {
      "id": 82,
      "name": "美式咖啡 Café Americano",
      "priceprev1": null,
      "priceprev2": null,
      "price": 32.00,
      "displaySpecialOffer": null,
      "description": "美式咖啡 Café Americano  description",
      "img": "/4c/1b/3f/07/67/4e/2b391db365b5481082e31dd57ec3dd27.jpg",
      "status": "ON_SALE",
      "salesVolume": 60,
      "createDate": "2019-05-05T19:37:01.465+0000",
      "updateDate": "2019-05-05T19:37:01.465+0000",
      "categoryId": 61,
      "categoryName": null
    },
    {
      "id": 83,
      "name": "新奥尔良烤鸡腿堡",
      "priceprev1": null,
      "priceprev2": null,
      "price": 0.00,
      "displaySpecialOffer": null,
      "description": "新奥尔良烤鸡腿堡  description",
      "img": "/4c/1b/3f/07/67/4e/2b391db365b5481082e31dd57ec3dd27.jpg",
      "status": "ON_SALE",
      "salesVolume": 657,
      "createDate": "2019-05-05T19:37:01.470+0000",
      "updateDate": "2019-05-05T19:37:01.470+0000",
      "categoryId": 58,
      "categoryName": null
    },
    {
      "id": 84,
      "name": "口水鸡",
      "priceprev1": null,
      "priceprev2": null,
      "price": 71.00,
      "displaySpecialOffer": null,
      "description": "口水鸡  description",
      "img": "/4c/1b/3f/07/67/4e/2b391db365b5481082e31dd57ec3dd27.jpg",
      "status": "ON_SALE",
      "salesVolume": 690,
      "createDate": "2019-05-05T19:37:01.474+0000",
      "updateDate": "2019-05-05T19:37:01.474+0000",
      "categoryId": 22,
      "categoryName": null
    },
    {
      "id": 85,
      "name": "扭一扭 :奶油夹心雪糕",
      "priceprev1": null,
      "priceprev2": null,
      "price": 94.00,
      "displaySpecialOffer": null,
      "description": "扭一扭 :奶油夹心雪糕  description",
      "img": "/4c/1b/3f/07/67/4e/2b391db365b5481082e31dd57ec3dd27.jpg",
      "status": "ON_SALE",
      "salesVolume": 408,
      "createDate": "2019-05-05T19:37:01.477+0000",
      "updateDate": "2019-05-05T19:37:01.477+0000",
      "categoryId": 23,
      "categoryName": null
    },
    {
      "id": 86,
      "name": "纯木瓜汁 Papaya Juice",
      "priceprev1": null,
      "priceprev2": null,
      "price": 93.00,
      "displaySpecialOffer": null,
      "description": "纯木瓜汁 Papaya Juice  description",
      "img": "/4c/1b/3f/07/67/4e/2b391db365b5481082e31dd57ec3dd27.jpg",
      "status": "ON_SALE",
      "salesVolume": 199,
      "createDate": "2019-05-05T19:37:01.481+0000",
      "updateDate": "2019-05-05T19:37:01.481+0000",
      "categoryId": 67,
      "categoryName": null
    },
    {
      "id": 87,
      "name": "朝日啤酒",
      "priceprev1": null,
      "priceprev2": null,
      "price": 81.00,
      "displaySpecialOffer": null,
      "description": "朝日啤酒  description",
      "img": "/4c/1b/3f/07/67/4e/2b391db365b5481082e31dd57ec3dd27.jpg",
      "status": "ON_SALE",
      "salesVolume": 941,
      "createDate": "2019-05-05T19:37:01.484+0000",
      "updateDate": "2019-05-05T19:37:01.484+0000",
      "categoryId": 24,
      "categoryName": null
    },
    {
      "id": 88,
      "name": "火山泉矿泉水 Volcano Spring Mineral Water",
      "priceprev1": null,
      "priceprev2": null,
      "price": 79.00,
      "displaySpecialOffer": null,
      "description": "火山泉矿泉水 Volcano Spring Mineral Water  description",
      "img": "/4c/1b/3f/07/67/4e/2b391db365b5481082e31dd57ec3dd27.jpg",
      "status": "ON_SALE",
      "salesVolume": 357,
      "createDate": "2019-05-05T19:37:01.488+0000",
      "updateDate": "2019-05-05T19:37:01.488+0000",
      "categoryId": 60,
      "categoryName": null
    },
    {
      "id": 89,
      "name": "鲜奶红豆雪糕",
      "priceprev1": null,
      "priceprev2": null,
      "price": 63.00,
      "displaySpecialOffer": null,
      "description": "鲜奶红豆雪糕  description",
      "img": "/4c/1b/3f/07/67/4e/2b391db365b5481082e31dd57ec3dd27.jpg",
      "status": "ON_SALE",
      "salesVolume": 536,
      "createDate": "2019-05-05T19:37:01.492+0000",
      "updateDate": "2019-05-05T19:37:01.492+0000",
      "categoryId": 23,
      "categoryName": null
    },
    {
      "id": 90,
      "name": "虾子盖浇饭",
      "priceprev1": null,
      "priceprev2": null,
      "price": 64.00,
      "displaySpecialOffer": null,
      "description": "虾子盖浇饭  description",
      "img": "/4c/1b/3f/07/67/4e/2b391db365b5481082e31dd57ec3dd27.jpg",
      "status": "ON_SALE",
      "salesVolume": 592,
      "createDate": "2019-05-05T19:37:01.495+0000",
      "updateDate": "2019-05-05T19:37:01.495+0000",
      "categoryId": 25,
      "categoryName": null
    },
    {
      "id": 91,
      "name": "金威啤酒",
      "priceprev1": null,
      "priceprev2": null,
      "price": 70.00,
      "displaySpecialOffer": null,
      "description": "金威啤酒  description",
      "img": "/4c/1b/3f/07/67/4e/2b391db365b5481082e31dd57ec3dd27.jpg",
      "status": "ON_SALE",
      "salesVolume": 136,
      "createDate": "2019-05-05T19:37:01.499+0000",
      "updateDate": "2019-05-05T19:37:01.499+0000",
      "categoryId": 24,
      "categoryName": null
    },
    {
      "id": 92,
      "name": "青岛啤酒",
      "priceprev1": null,
      "priceprev2": null,
      "price": 16.00,
      "displaySpecialOffer": null,
      "description": "青岛啤酒  description",
      "img": "/4c/1b/3f/07/67/4e/2b391db365b5481082e31dd57ec3dd27.jpg",
      "status": "ON_SALE",
      "salesVolume": 986,
      "createDate": "2019-05-05T19:37:01.502+0000",
      "updateDate": "2019-05-05T19:37:01.502+0000",
      "categoryId": 24,
      "categoryName": null
    },
    {
      "id": 93,
      "name": "随变 :酥糖+牛奶口味雪糕",
      "priceprev1": null,
      "priceprev2": null,
      "price": 14.00,
      "displaySpecialOffer": null,
      "description": "随变 :酥糖+牛奶口味雪糕  description",
      "img": "/4c/1b/3f/07/67/4e/2b391db365b5481082e31dd57ec3dd27.jpg",
      "status": "ON_SALE",
      "salesVolume": 614,
      "createDate": "2019-05-05T19:37:01.504+0000",
      "updateDate": "2019-05-05T19:37:01.504+0000",
      "categoryId": 23,
      "categoryName": null
    },
    {
      "id": 94,
      "name": "百变圈 :咖啡脆筒雪糕",
      "priceprev1": null,
      "priceprev2": null,
      "price": 46.00,
      "displaySpecialOffer": null,
      "description": "百变圈 :咖啡脆筒雪糕  description",
      "img": "/4c/1b/3f/07/67/4e/2b391db365b5481082e31dd57ec3dd27.jpg",
      "status": "ON_SALE",
      "salesVolume": 892,
      "createDate": "2019-05-05T19:37:01.507+0000",
      "updateDate": "2019-05-05T19:37:01.507+0000",
      "categoryId": 23,
      "categoryName": null
    },
    {
      "id": 95,
      "name": "泡椒鳝鱼",
      "priceprev1": null,
      "priceprev2": null,
      "price": 34.00,
      "displaySpecialOffer": null,
      "description": "泡椒鳝鱼  description",
      "img": "/4c/1b/3f/07/67/4e/2b391db365b5481082e31dd57ec3dd27.jpg",
      "status": "ON_SALE",
      "salesVolume": 111,
      "createDate": "2019-05-05T19:37:01.511+0000",
      "updateDate": "2019-05-05T19:37:01.511+0000",
      "categoryId": 22,
      "categoryName": null
    },
    {
      "id": 96,
      "name": "珠江啤酒",
      "priceprev1": null,
      "priceprev2": null,
      "price": 9.00,
      "displaySpecialOffer": null,
      "description": "珠江啤酒  description",
      "img": "/4c/1b/3f/07/67/4e/2b391db365b5481082e31dd57ec3dd27.jpg",
      "status": "ON_SALE",
      "salesVolume": 670,
      "createDate": "2019-05-05T19:37:01.515+0000",
      "updateDate": "2019-05-05T19:37:01.515+0000",
      "categoryId": 24,
      "categoryName": null
    },
    {
      "id": 97,
      "name": "牙买加咖啡 Jamaican Coffee",
      "priceprev1": null,
      "priceprev2": null,
      "price": 70.00,
      "displaySpecialOffer": null,
      "description": "牙买加咖啡 Jamaican Coffee  description",
      "img": "/4c/1b/3f/07/67/4e/2b391db365b5481082e31dd57ec3dd27.jpg",
      "status": "ON_SALE",
      "salesVolume": 760,
      "createDate": "2019-05-05T19:37:01.518+0000",
      "updateDate": "2019-05-05T19:37:01.518+0000",
      "categoryId": 61,
      "categoryName": null
    },
    {
      "id": 98,
      "name": "青岛啤酒",
      "priceprev1": null,
      "priceprev2": null,
      "price": 59.00,
      "displaySpecialOffer": null,
      "description": "青岛啤酒  description",
      "img": "/4c/1b/3f/07/67/4e/2b391db365b5481082e31dd57ec3dd27.jpg",
      "status": "ON_SALE",
      "salesVolume": 524,
      "createDate": "2019-05-05T19:37:01.521+0000",
      "updateDate": "2019-05-05T19:37:01.521+0000",
      "categoryId": 24,
      "categoryName": null
    },
    {
      "id": 99,
      "name": "黑米糕 :黑米+牛奶雪糕",
      "priceprev1": null,
      "priceprev2": null,
      "price": 44.00,
      "displaySpecialOffer": null,
      "description": "黑米糕 :黑米+牛奶雪糕  description",
      "img": "/4c/1b/3f/07/67/4e/2b391db365b5481082e31dd57ec3dd27.jpg",
      "status": "ON_SALE",
      "salesVolume": 506,
      "createDate": "2019-05-05T19:37:01.524+0000",
      "updateDate": "2019-05-05T19:37:01.524+0000",
      "categoryId": 23,
      "categoryName": null
    },
    {
      "id": 100,
      "name": "圣培露矿泉水 San Pellegrino Mineral Water",
      "priceprev1": null,
      "priceprev2": null,
      "price": 92.00,
      "displaySpecialOffer": null,
      "description": "圣培露矿泉水 San Pellegrino Mineral Water  description",
      "img": "/4c/1b/3f/07/67/4e/2b391db365b5481082e31dd57ec3dd27.jpg",
      "status": "ON_SALE",
      "salesVolume": 121,
      "createDate": "2019-05-05T19:37:01.528+0000",
      "updateDate": "2019-05-05T19:37:01.528+0000",
      "categoryId": 60,
      "categoryName": null
    }
  ],
  "pageable": {
    "sort": {
      "sorted": false,
      "unsorted": true,
      "empty": true
    },
    "offset": 0,
    "pageSize": 40,
    "pageNumber": 0,
    "unpaged": false,
    "paged": true
  },
  "totalPages": 26,
  "totalElements": 1007,
  "last": false,
  "size": 40,
  "number": 0,
  "sort": {
    "sorted": false,
    "unsorted": true,
    "empty": true
  },
  "numberOfElements": 40,
  "first": true,
  "empty": false
}